{
  "template": "phperrors*",
  "settings": {
    "index": {
      "number_of_shards": "4",
      "number_of_replicas": "0",
      "refresh_interval": "10s"
    }
  },
  "mappings": {
    "phperrors": {
      "_meta": {
        "version": "1.0"
      },
      "_all": {
        "enabled": false
      },
      "dynamic": true,
      "properties": {
        "@timestamp": {
          "type": "date"
        },
        "@version": {
          "type": "keyword"
        },
        "type": {
          "type": "keyword"
        },
        "project": {
          "type": "keyword"
        },
        "env": {
          "type": "keyword"
        },
        "host": {
          "type": "keyword"
        },
        "level": {
          "type": "keyword"
        },
        "error": {
          "type": "text",
          "fields": {
            "keyword": {
              "type": "keyword"
            }
          }
        },
        "file": {
          "type": "text",
          "fields": {
            "keyword": {
              "type": "keyword"
            }
          }
        },
        "line": {
          "type": "integer"
        },
        "request_id": {
          "type": "keyword"
        }
      }
    }
  }
}
